PCBNEW-LibModule-V1  2020-09-11 12:00:05
# encoding utf-8
Units mm
$INDEX
SOIC127P1032X265-20N
$EndINDEX
$MODULE SOIC127P1032X265-20N
Po 0 0 0 15 5f5b58b5 00000000 ~~
Li SOIC127P1032X265-20N
Cd SO20PIN
Kw Integrated Circuit
Sc 0
At SMD
AR 
Op 0 0 0
T0 0 0 1.27 1.27 0 0.254 N V 21 N "IC**"
T1 0 0 1.27 1.27 0 0.254 N I 21 N "SOIC127P1032X265-20N"
DS -5.95 -6.75 5.95 -6.75 0.05 24
DS 5.95 -6.75 5.95 6.75 0.05 24
DS 5.95 6.75 -5.95 6.75 0.05 24
DS -5.95 6.75 -5.95 -6.75 0.05 24
DS -3.75 -6.4 3.75 -6.4 0.1 24
DS 3.75 -6.4 3.75 6.4 0.1 24
DS 3.75 6.4 -3.75 6.4 0.1 24
DS -3.75 6.4 -3.75 -6.4 0.1 24
DS -3.75 -5.13 -2.48 -6.4 0.1 24
DS -3.4 -6.4 3.4 -6.4 0.2 21
DS 3.4 -6.4 3.4 6.4 0.2 21
DS 3.4 6.4 -3.4 6.4 0.2 21
DS -3.4 6.4 -3.4 -6.4 0.2 21
DS -5.7 -6.415 -3.75 -6.415 0.2 21
$PAD
Po -4.725 -5.715
Sh "1" R 0.7 1.95 0 0 900
At SMD N 00888000
Ne 0 ""
$EndPAD
$PAD
Po -4.725 -4.445
Sh "2" R 0.7 1.95 0 0 900
At SMD N 00888000
Ne 0 ""
$EndPAD
$PAD
Po -4.725 -3.175
Sh "3" R 0.7 1.95 0 0 900
At SMD N 00888000
Ne 0 ""
$EndPAD
$PAD
Po -4.725 -1.905
Sh "4" R 0.7 1.95 0 0 900
At SMD N 00888000
Ne 0 ""
$EndPAD
$PAD
Po -4.725 -0.635
Sh "5" R 0.7 1.95 0 0 900
At SMD N 00888000
Ne 0 ""
$EndPAD
$PAD
Po -4.725 0.635
Sh "6" R 0.7 1.95 0 0 900
At SMD N 00888000
Ne 0 ""
$EndPAD
$PAD
Po -4.725 1.905
Sh "7" R 0.7 1.95 0 0 900
At SMD N 00888000
Ne 0 ""
$EndPAD
$PAD
Po -4.725 3.175
Sh "8" R 0.7 1.95 0 0 900
At SMD N 00888000
Ne 0 ""
$EndPAD
$PAD
Po -4.725 4.445
Sh "9" R 0.7 1.95 0 0 900
At SMD N 00888000
Ne 0 ""
$EndPAD
$PAD
Po -4.725 5.715
Sh "10" R 0.7 1.95 0 0 900
At SMD N 00888000
Ne 0 ""
$EndPAD
$PAD
Po 4.725 5.715
Sh "11" R 0.7 1.95 0 0 900
At SMD N 00888000
Ne 0 ""
$EndPAD
$PAD
Po 4.725 4.445
Sh "12" R 0.7 1.95 0 0 900
At SMD N 00888000
Ne 0 ""
$EndPAD
$PAD
Po 4.725 3.175
Sh "13" R 0.7 1.95 0 0 900
At SMD N 00888000
Ne 0 ""
$EndPAD
$PAD
Po 4.725 1.905
Sh "14" R 0.7 1.95 0 0 900
At SMD N 00888000
Ne 0 ""
$EndPAD
$PAD
Po 4.725 0.635
Sh "15" R 0.7 1.95 0 0 900
At SMD N 00888000
Ne 0 ""
$EndPAD
$PAD
Po 4.725 -0.635
Sh "16" R 0.7 1.95 0 0 900
At SMD N 00888000
Ne 0 ""
$EndPAD
$PAD
Po 4.725 -1.905
Sh "17" R 0.7 1.95 0 0 900
At SMD N 00888000
Ne 0 ""
$EndPAD
$PAD
Po 4.725 -3.175
Sh "18" R 0.7 1.95 0 0 900
At SMD N 00888000
Ne 0 ""
$EndPAD
$PAD
Po 4.725 -4.445
Sh "19" R 0.7 1.95 0 0 900
At SMD N 00888000
Ne 0 ""
$EndPAD
$PAD
Po 4.725 -5.715
Sh "20" R 0.7 1.95 0 0 900
At SMD N 00888000
Ne 0 ""
$EndPAD
$EndMODULE SOIC127P1032X265-20N
$EndLIBRARY
