
(kicad_symbol_lib (version 20211014) (generator kicad_symbol_editor)
  (symbol "ATECC608B-SSHDA-T" (pin_names (offset 1.016)) (in_bom yes) (on_board yes)
    (property "Reference" "U" (id 0) (at -10.16 10.16 0)
      (effects (font (size 1.27 1.27)) (justify top left))
    )
    (property "Value" "ATECC608B-SSHDA-T" (id 1) (at -10.16 -10.16 0)
      (effects (font (size 1.27 1.27)) (justify bottom left))
    )
    (property "Footprint" "SOIC127P600X175-8N" (id 2) (at 0 0 0)
      (effects (font (size 1.27 1.27)) (justify bottom) hide)
    )
    (property "PARTREV" "B" (id 4) (at 0 0 0)
      (effects (font (size 1.27 1.27)) (justify bottom) hide)
    )
    (property "STANDARD" "IPC-7351B" (id 5) (at 0 0 0)
      (effects (font (size 1.27 1.27)) (justify bottom) hide)
    )
    (property "MAXIMUM_PACKAGE_HEIGHT" "1.75mm" (id 6) (at 0 0 0)
      (effects (font (size 1.27 1.27)) (justify bottom) hide)
    )
    (property "MANUFACTURER" "Microchip Technology" (id 7) (at 0 0 0)
      (effects (font (size 1.27 1.27)) (justify bottom) hide)
    )
    (symbol "ATECC608B-SSHDA-T_0_0"
      (rectangle (start -10.16 -7.62) (end 10.16 7.62)
        (stroke (width 0.254)) (fill (type background))
      )
      (pin input clock (at -15.24 2.54 0) (length 5.08)
        (name "SCL"
          (effects (font (size 1.016 1.016)))
        )
        (number "6"
          (effects (font (size 1.016 1.016)))
        )
      )
      (pin bidirectional line (at -15.24 -2.54 0) (length 5.08)
        (name "SDA"
          (effects (font (size 1.016 1.016)))
        )
        (number "5"
          (effects (font (size 1.016 1.016)))
        )
      )
      (pin no_connect line (at 15.24 0.0 180.0) (length 5.08)
        (name "NC"
          (effects (font (size 1.016 1.016)))
        )
        (number "1"
          (effects (font (size 1.016 1.016)))
        )
      )
      (pin no_connect line (at 15.24 0.0 180.0) (length 5.08)
        (name "NC"
          (effects (font (size 1.016 1.016)))
        )
        (number "2"
          (effects (font (size 1.016 1.016)))
        )
      )
      (pin no_connect line (at 15.24 0.0 180.0) (length 5.08)
        (name "NC"
          (effects (font (size 1.016 1.016)))
        )
        (number "3"
          (effects (font (size 1.016 1.016)))
        )
      )
      (pin no_connect line (at 15.24 0.0 180.0) (length 5.08)
        (name "NC"
          (effects (font (size 1.016 1.016)))
        )
        (number "7"
          (effects (font (size 1.016 1.016)))
        )
      )
      (pin power_in line (at 15.24 5.08 180.0) (length 5.08)
        (name "VCC"
          (effects (font (size 1.016 1.016)))
        )
        (number "8"
          (effects (font (size 1.016 1.016)))
        )
      )
      (pin power_in line (at 15.24 -5.08 180.0) (length 5.08)
        (name "GND"
          (effects (font (size 1.016 1.016)))
        )
        (number "4"
          (effects (font (size 1.016 1.016)))
        )
      )
    )
  )
)