
(kicad_symbol_lib (version 20211014) (generator kicad_symbol_editor)
  (symbol "RA-01H" (pin_names (offset 1.016)) (in_bom yes) (on_board yes)
    (property "Reference" "U" (id 0) (at -12.7 16.256 0)
      (effects (font (size 1.27 1.27)) (justify bottom left))
    )
    (property "Value" "RA-01H" (id 1) (at -12.7 -17.78 0)
      (effects (font (size 1.27 1.27)) (justify bottom left))
    )
    (property "Footprint" "XCVR_RA-01H" (id 2) (at 0 0 0)
      (effects (font (size 1.27 1.27)) (justify bottom) hide)
    )
    (property "PARTREV" "V1.0" (id 4) (at 0 0 0)
      (effects (font (size 1.27 1.27)) (justify bottom) hide)
    )
    (property "STANDARD" "Manufacturer Recommendations" (id 5) (at 0 0 0)
      (effects (font (size 1.27 1.27)) (justify bottom) hide)
    )
    (property "MAXIMUM_PACKAGE_HEIGHT" "3.4mm" (id 6) (at 0 0 0)
      (effects (font (size 1.27 1.27)) (justify bottom) hide)
    )
    (property "MANUFACTURER" "AI-Thinker" (id 7) (at 0 0 0)
      (effects (font (size 1.27 1.27)) (justify bottom) hide)
    )
    (symbol "RA-01H_0_0"
      (rectangle (start -12.7 -15.24) (end 12.7 15.24)
        (stroke (width 0.254)) (fill (type background))
      )
      (pin bidirectional line (at 17.78 7.62 180.0) (length 5.08)
        (name "ANT"
          (effects (font (size 1.016 1.016)))
        )
        (number "1"
          (effects (font (size 1.016 1.016)))
        )
      )
      (pin power_in line (at 17.78 -12.7 180.0) (length 5.08)
        (name "GND"
          (effects (font (size 1.016 1.016)))
        )
        (number "2"
          (effects (font (size 1.016 1.016)))
        )
      )
      (pin power_in line (at 17.78 -12.7 180.0) (length 5.08)
        (name "GND"
          (effects (font (size 1.016 1.016)))
        )
        (number "9"
          (effects (font (size 1.016 1.016)))
        )
      )
      (pin power_in line (at 17.78 -12.7 180.0) (length 5.08)
        (name "GND"
          (effects (font (size 1.016 1.016)))
        )
        (number "16"
          (effects (font (size 1.016 1.016)))
        )
      )
      (pin power_in line (at 17.78 12.7 180.0) (length 5.08)
        (name "3.3V"
          (effects (font (size 1.016 1.016)))
        )
        (number "3"
          (effects (font (size 1.016 1.016)))
        )
      )
      (pin input line (at -17.78 7.62 0) (length 5.08)
        (name "RESET"
          (effects (font (size 1.016 1.016)))
        )
        (number "4"
          (effects (font (size 1.016 1.016)))
        )
      )
      (pin bidirectional line (at -17.78 2.54 0) (length 5.08)
        (name "DIO0"
          (effects (font (size 1.016 1.016)))
        )
        (number "5"
          (effects (font (size 1.016 1.016)))
        )
      )
      (pin input clock (at 17.78 2.54 180.0) (length 5.08)
        (name "SCK"
          (effects (font (size 1.016 1.016)))
        )
        (number "12"
          (effects (font (size 1.016 1.016)))
        )
      )
      (pin output line (at 17.78 -5.08 180.0) (length 5.08)
        (name "MISO"
          (effects (font (size 1.016 1.016)))
        )
        (number "13"
          (effects (font (size 1.016 1.016)))
        )
      )
      (pin input line (at 17.78 -2.54 180.0) (length 5.08)
        (name "MOSI"
          (effects (font (size 1.016 1.016)))
        )
        (number "14"
          (effects (font (size 1.016 1.016)))
        )
      )
      (pin input line (at 17.78 0.0 180.0) (length 5.08)
        (name "NSS"
          (effects (font (size 1.016 1.016)))
        )
        (number "15"
          (effects (font (size 1.016 1.016)))
        )
      )
      (pin bidirectional line (at -17.78 0.0 0) (length 5.08)
        (name "DIO1"
          (effects (font (size 1.016 1.016)))
        )
        (number "6"
          (effects (font (size 1.016 1.016)))
        )
      )
      (pin bidirectional line (at -17.78 -2.54 0) (length 5.08)
        (name "DIO2"
          (effects (font (size 1.016 1.016)))
        )
        (number "7"
          (effects (font (size 1.016 1.016)))
        )
      )
      (pin bidirectional line (at -17.78 -5.08 0) (length 5.08)
        (name "DIO3"
          (effects (font (size 1.016 1.016)))
        )
        (number "8"
          (effects (font (size 1.016 1.016)))
        )
      )
      (pin bidirectional line (at -17.78 -7.62 0) (length 5.08)
        (name "DIO4"
          (effects (font (size 1.016 1.016)))
        )
        (number "10"
          (effects (font (size 1.016 1.016)))
        )
      )
      (pin bidirectional line (at -17.78 -10.16 0) (length 5.08)
        (name "DIO5"
          (effects (font (size 1.016 1.016)))
        )
        (number "11"
          (effects (font (size 1.016 1.016)))
        )
      )
    )
  )
)