(footprint "QFN28G_0.5-5X5MM" (version 20211014) (generator pcbnew)
  (layer "F.Cu")
  (tedit 63580D99)
  (attr through_hole)
  (fp_text reference "REF**" (at -0.976228 -3.805681) (layer "F.SilkS")
    (effects (font (size 0.480111 0.480111) (thickness 0.15)))
    (tstamp 90afd7ca-c39f-46ff-8459-71fda70ae949)
  )
  (fp_text value "QFN28G_0.5-5X5MM" (at 2.878318 3.569157) (layer "F.Fab")
    (effects (font (size 0.48002 0.48002) (thickness 0.15)))
    (tstamp 992a2281-8684-4530-9316-cc81a9ed0d03)
  )
  (fp_text user "REF**" (at 0.0508 0.0254 90 unlocked) (layer "F.Fab")
    (effects (font (size 0.75 0.75) (thickness 0.15)))
    (tstamp 49ceec2f-23eb-4081-87d6-c2577a5c31d6)
  )
  (fp_poly (pts
      (xy 0.250062 -1.5)
      (xy 1.5 -1.5)
      (xy 1.5 -0.250062)
      (xy 0.250062 -0.250062)
    ) (layer "F.Paste") (width 0.01) (fill solid) (tstamp 4f7770dd-4b94-4adc-acb1-e53a5fecd595))
  (fp_poly (pts
      (xy 0.250456 0.25)
      (xy 1.5 0.25)
      (xy 1.5 1.50273)
      (xy 0.250456 1.50273)
    ) (layer "F.Paste") (width 0.01) (fill solid) (tstamp 5d2b421a-c26b-439c-a815-2bfcb3c93d83))
  (fp_poly (pts
      (xy -1.50252 0.25)
      (xy -0.25 0.25)
      (xy -0.25 1.50252)
      (xy -1.50252 1.50252)
    ) (layer "F.Paste") (width 0.01) (fill solid) (tstamp 895f5ed9-45fb-46c6-bcd8-8c85f0177719))
  (fp_poly (pts
      (xy -1.50248 -1.5)
      (xy -0.25 -1.5)
      (xy -0.25 -0.250413)
      (xy -1.50248 -0.250413)
    ) (layer "F.Paste") (width 0.01) (fill solid) (tstamp c7032e08-3235-49a6-be9f-5eea87cc41e4))
  (fp_line (start 2.5 -2.5) (end 2.5 -1.75) (layer "F.SilkS") (width 0.127) (tstamp 0fc22e47-e3e4-4f52-8a2d-6e89932d9ec0))
  (fp_line (start 1.75 -2.5) (end 2.5 -2.5) (layer "F.SilkS") (width 0.127) (tstamp 1178d5f9-06e1-486d-90df-3b4bb9847340))
  (fp_line (start 2.5 2.5) (end 2.5 1.75) (layer "F.SilkS") (width 0.127) (tstamp 1601a85d-6a63-4b0f-b049-cde2632ab0f2))
  (fp_line (start -2.5 1.75) (end -2.5 2.5) (layer "F.SilkS") (width 0.127) (tstamp 240eb14b-7797-406c-9da8-e67f536820d2))
  (fp_line (start -2.5 2.5) (end -1.75 2.5) (layer "F.SilkS") (width 0.127) (tstamp 4e7eed74-a983-45cb-9e03-b393f9cad20a))
  (fp_line (start 1.75 2.5) (end 2.5 2.5) (layer "F.SilkS") (width 0.127) (tstamp 902c7b4e-256d-45c3-9baa-52eca63aa819))
  (fp_line (start -2.5 -2.14645) (end -2.5 -1.75) (layer "F.SilkS") (width 0.127) (tstamp a5c682ee-f2ec-4aad-b1e0-5c500720c558))
  (fp_line (start -1.75 -2.5) (end -2.14645 -2.5) (layer "F.SilkS") (width 0.127) (tstamp c4869ae2-e5fb-449a-94ff-8c8c29a9b3c9))
  (fp_line (start -2.14645 -2.5) (end -2.5 -2.14645) (layer "F.SilkS") (width 0.127) (tstamp f46d3a48-8a70-46da-b285-a3f70a416cfb))
  (fp_circle (center -3 -2.25) (end -2.75 -2.25) (layer "F.SilkS") (width 0.127) (fill none) (tstamp 8630f70f-5f40-4440-950a-9393a4bebd8a))
  (pad "1" smd rect (at -2.4384 -1.5) (size 0.9 0.254) (layers "F.Cu" "F.Paste" "F.Mask") (tstamp d94f2870-a235-4d4d-92c7-20a761a4d425))
  (pad "2" smd rect (at -2.4384 -1) (size 0.9 0.254) (layers "F.Cu" "F.Paste" "F.Mask") (tstamp b4b6a71c-f409-4789-b894-f8d8eef489a4))
  (pad "3" smd rect (at -2.4384 -0.5) (size 0.9 0.254) (layers "F.Cu" "F.Paste" "F.Mask") (tstamp f4c26074-a81a-45dd-9c68-3331852d6908))
  (pad "4" smd rect (at -2.4384 0) (size 0.9 0.254) (layers "F.Cu" "F.Paste" "F.Mask") (tstamp e052fd62-e208-4613-baf9-df6278e59471))
  (pad "5" smd rect (at -2.4384 0.5) (size 0.9 0.254) (layers "F.Cu" "F.Paste" "F.Mask") (tstamp faa12f84-d94a-4c1b-bf5a-145f3f4af982))
  (pad "6" smd rect (at -2.4384 1) (size 0.9 0.254) (layers "F.Cu" "F.Paste" "F.Mask") (tstamp b7774a22-b5b5-465e-b2f8-2e59c355fb6a))
  (pad "7" smd rect (at -2.4384 1.5) (size 0.9 0.254) (layers "F.Cu" "F.Paste" "F.Mask") (tstamp 731a74e9-fa73-41ae-bee2-e9b746b81231))
  (pad "8" smd rect (at -1.4986 2.4638 90) (size 0.9 0.254) (layers "F.Cu" "F.Paste" "F.Mask") (tstamp d9248119-bde0-49cc-ac61-672cd47ccc21))
  (pad "9" smd rect (at -0.9986 2.4638 90) (size 0.9 0.254) (layers "F.Cu" "F.Paste" "F.Mask") (tstamp 3249b215-519e-403e-baac-a7011c265792))
  (pad "10" smd rect (at -0.4986 2.4638 90) (size 0.9 0.254) (layers "F.Cu" "F.Paste" "F.Mask") (tstamp cf58a634-dc69-4504-b991-dd1191d4eea4))
  (pad "11" smd rect (at 0.0014 2.4638 90) (size 0.9 0.254) (layers "F.Cu" "F.Paste" "F.Mask") (tstamp a82f7faa-a1fe-449a-a4fa-480878032195))
  (pad "12" smd rect (at 0.5014 2.4638 90) (size 0.9 0.254) (layers "F.Cu" "F.Paste" "F.Mask") (tstamp 3c7e3dba-ea4b-4a1b-a8a6-68ecd3af3d9d))
  (pad "13" smd rect (at 1.0014 2.4638 90) (size 0.9 0.254) (layers "F.Cu" "F.Paste" "F.Mask") (tstamp 5f525cd8-9d02-46e7-ad0a-edbdb204eec9))
  (pad "14" smd rect (at 1.5014 2.4638 90) (size 0.9 0.254) (layers "F.Cu" "F.Paste" "F.Mask") (tstamp 5b425795-9fc0-4223-b28c-c0472f90dfdf))
  (pad "15" smd rect (at 2.4638 1.5 180) (size 0.9 0.254) (layers "F.Cu" "F.Paste" "F.Mask") (tstamp 6b8d81f6-a07a-4f53-9c22-870cb6ea3e6d))
  (pad "16" smd rect (at 2.4638 1 180) (size 0.9 0.254) (layers "F.Cu" "F.Paste" "F.Mask") (tstamp 9b9a2e63-24d3-4c7c-b4aa-ea49558108fb))
  (pad "17" smd rect (at 2.4638 0.5 180) (size 0.9 0.254) (layers "F.Cu" "F.Paste" "F.Mask") (tstamp 65ac41ef-8c45-47bf-a72e-a0f4c2f2df0c))
  (pad "18" smd rect (at 2.4638 0 180) (size 0.9 0.254) (layers "F.Cu" "F.Paste" "F.Mask") (tstamp bc7222f9-85da-4af5-937c-a77bbee6fb37))
  (pad "19" smd rect (at 2.4638 -0.5 180) (size 0.9 0.254) (layers "F.Cu" "F.Paste" "F.Mask") (tstamp 22211999-d6de-4981-8ce9-8d2d35acff70))
  (pad "20" smd rect (at 2.4638 -1 180) (size 0.9 0.254) (layers "F.Cu" "F.Paste" "F.Mask") (tstamp ca3fde0f-5fa0-43fd-88b0-bfda500f1f7c))
  (pad "21" smd rect (at 2.4638 -1.5 180) (size 0.9 0.254) (layers "F.Cu" "F.Paste" "F.Mask") (tstamp c6b363e7-d579-4adb-9089-40385b8266a2))
  (pad "22" smd rect (at 1.5 -2.4638 270) (size 0.9 0.254) (layers "F.Cu" "F.Paste" "F.Mask") (tstamp a427cd29-1289-4f88-a440-1171f1098ce5))
  (pad "23" smd rect (at 1 -2.4638 270) (size 0.9 0.254) (layers "F.Cu" "F.Paste" "F.Mask") (tstamp 132c381c-4387-496f-b6d4-f1cf3f602e2f))
  (pad "24" smd rect (at 0.5 -2.4638 270) (size 0.9 0.254) (layers "F.Cu" "F.Paste" "F.Mask") (tstamp b0e2906b-727b-4321-9edb-c621d676ee2d))
  (pad "25" smd rect (at 0 -2.4638 270) (size 0.9 0.254) (layers "F.Cu" "F.Paste" "F.Mask") (tstamp 43170e90-ecde-4a07-ab23-5381e3afaa15))
  (pad "26" smd rect (at -0.5 -2.4638 270) (size 0.9 0.254) (layers "F.Cu" "F.Paste" "F.Mask") (tstamp 7cad555b-56d0-4123-a175-d82151d0b0be))
  (pad "27" smd rect (at -1 -2.4638 270) (size 0.9 0.254) (layers "F.Cu" "F.Paste" "F.Mask") (tstamp a06c6164-121d-4824-a605-31d579ffd013))
  (pad "28" smd rect (at -1.5 -2.4638 270) (size 0.9 0.254) (layers "F.Cu" "F.Paste" "F.Mask") (tstamp 89862d72-f870-47fe-874b-39014e5ff9e1))
  (pad "29" smd rect (at 0 0) (size 3.1 3.1) (layers "F.Cu" "F.Mask") (tstamp 04bbc413-e283-4b61-8d86-3ef35a6d658a))
  (model "${KIPRJMOD}/Lib/INTERFACE-CP2102-GMR_QFN28_.step"
    (offset (xyz 0 0 0))
    (scale (xyz 1 1 1))
    (rotate (xyz -90 0 0))
  )
)
