(module LOGO (layer F.Cu)
  (at 0 0)
 (fp_text reference "G***" (at 0 0) (layer F.SilkS) hide
  (effects (font (thickness 0.3)))
  )
  (fp_text value "LOGO" (at 0.75 0) (layer F.SilkS) hide
  (effects (font (thickness 0.3)))
  )
  (fp_poly (pts (xy 2.822058 3.601409) (xy 2.887137 3.617147) (xy 2.966478 3.637356) (xy 2.971916 3.638660) (xy 3.224260 3.716099) (xy 3.459172 3.821717) (xy 3.669844 3.950495) (xy 3.849467 4.097417)
     (xy 3.991233 4.257466) (xy 4.088335 4.425626) (xy 4.107181 4.475234) (xy 4.137579 4.647067) (xy 4.119675 4.823757) (xy 4.067023 4.967128) (xy 3.974629 5.099643) (xy 3.835518 5.232219)
     (xy 3.656262 5.360482) (xy 3.443432 5.480060) (xy 3.203602 5.586578) (xy 3.055296 5.640457) (xy 2.920175 5.683696) (xy 2.823691 5.708720) (xy 2.754915 5.717382) (xy 2.702919 5.711533)
     (xy 2.680369 5.703977) (xy 2.671413 5.688741) (xy 2.664086 5.648236) (xy 2.658255 5.578389) (xy 2.653790 5.475127) (xy 2.650559 5.334375) (xy 2.648429 5.152061) (xy 2.647270 4.924110)
     (xy 2.646948 4.669783) (xy 2.646926 4.652211) (xy 2.780632 4.652211) (xy 2.780898 4.904526) (xy 2.781831 5.108278) (xy 2.783634 5.268376) (xy 2.786507 5.389729) (xy 2.790654 5.477244)
     (xy 2.796275 5.535832) (xy 2.803574 5.570400) (xy 2.812752 5.585857) (xy 2.819144 5.588000) (xy 2.861628 5.579364) (xy 2.938818 5.556527) (xy 3.035362 5.524098) (xy 3.053091 5.517784)
     (xy 3.338623 5.401584) (xy 3.575144 5.276127) (xy 3.762010 5.142192) (xy 3.898572 5.000558) (xy 3.984186 4.852001) (xy 4.018206 4.697301) (xy 3.999984 4.537235) (xy 3.958342 4.427611)
     (xy 3.876968 4.303406) (xy 3.755425 4.174959) (xy 3.605099 4.052219) (xy 3.437380 3.945137) (xy 3.360694 3.905394) (xy 3.249249 3.856243) (xy 3.124549 3.808092) (xy 3.000908 3.765740)
     (xy 2.892645 3.733985) (xy 2.814075 3.717625) (xy 2.796825 3.716421) (xy 2.793058 3.742149) (xy 2.789602 3.815301) (xy 2.786560 3.929824) (xy 2.784039 4.079669) (xy 2.782142 4.258786)
     (xy 2.780973 4.461123) (xy 2.780632 4.652211) (xy 2.646926 4.652211) (xy 2.646593 4.395855) (xy 2.646466 4.170934) (xy 2.647970 3.990567) (xy 2.652508 3.850300) (xy 2.661484 3.745680)
     (xy 2.676302 3.672253) (xy 2.698365 3.625566) (xy 2.729076 3.601166) (xy 2.769839 3.594598) (xy 2.822058 3.601409) )(layer F.SilkS) (width  0.010000)
  )
  (fp_poly (pts (xy -1.527842 3.590163) (xy -1.502192 3.615169) (xy -1.472014 3.661843) (xy -1.435535 3.734275) (xy -1.390984 3.836556) (xy -1.336588 3.972774) (xy -1.270574 4.147018) (xy -1.191170 4.363380)
     (xy -1.096602 4.625948) (xy -1.087206 4.652211) (xy -0.997382 4.903849) (xy -0.924369 5.109890) (xy -0.866763 5.275011) (xy -0.823161 5.403891) (xy -0.792159 5.501207) (xy -0.772351 5.571638)
     (xy -0.762335 5.619862) (xy -0.760706 5.650557) (xy -0.766061 5.668400) (xy -0.776994 5.678071) (xy -0.779006 5.679095) (xy -0.823203 5.694175) (xy -0.838280 5.692463) (xy -0.848935 5.665690)
     (xy -0.875476 5.594043) (xy -0.915909 5.483042) (xy -0.968242 5.338209) (xy -1.030481 5.165065) (xy -1.100630 4.969132) (xy -1.176698 4.755930) (xy -1.192209 4.712369) (xy -1.269256 4.496884)
     (xy -1.341011 4.298051) (xy -1.405460 4.121312) (xy -1.460586 3.972113) (xy -1.504376 3.855897) (xy -1.534814 3.778111) (xy -1.549886 3.744197) (xy -1.550891 3.743158) (xy -1.562576 3.767467)
     (xy -1.590048 3.836775) (xy -1.631299 3.945658) (xy -1.684321 4.088687) (xy -1.747106 4.260438) (xy -1.817647 4.455484) (xy -1.893935 4.668398) (xy -1.911917 4.718859) (xy -1.989593 4.935173)
     (xy -2.062576 5.134829) (xy -2.128783 5.312393) (xy -2.186130 5.462434) (xy -2.232536 5.579518) (xy -2.265915 5.658215) (xy -2.284186 5.693091) (xy -2.286000 5.694344) (xy -2.331886 5.680825)
     (xy -2.343099 5.674486) (xy -2.344289 5.648242) (xy -2.328857 5.580615) (xy -2.296331 5.470129) (xy -2.246236 5.315308) (xy -2.178100 5.114676) (xy -2.091449 4.866756) (xy -2.015210 4.652211)
     (xy -1.919306 4.385385) (xy -1.838702 4.165130) (xy -1.771618 3.987344) (xy -1.716273 3.847927) (xy -1.670884 3.742777) (xy -1.633672 3.667792) (xy -1.602854 3.618873) (xy -1.576651 3.591917)
     (xy -1.553280 3.582823) (xy -1.550737 3.582737) (xy -1.527842 3.590163) )(layer F.SilkS) (width  0.010000)
  )
  (fp_poly (pts (xy 0.883136 3.649173) (xy 0.898053 3.693087) (xy 0.888764 3.775498) (xy 0.879973 3.815313) (xy 0.812305 4.021821) (xy 0.713668 4.216222) (xy 0.590959 4.389871) (xy 0.451080 4.534117)
     (xy 0.300929 4.640315) (xy 0.181228 4.691140) (xy 0.066842 4.724873) (xy 0.053474 5.202899) (xy 0.047983 5.376953) (xy 0.042152 5.504492) (xy 0.035198 5.592473) (xy 0.026336 5.647853)
     (xy 0.014781 5.677588) (xy -0.000249 5.688635) (xy -0.001304 5.688860) (xy -0.048839 5.685528) (xy -0.061461 5.678047) (xy -0.067579 5.646403) (xy -0.072861 5.570345) (xy -0.076955 5.458932)
     (xy -0.079510 5.321222) (xy -0.080210 5.195021) (xy -0.080663 5.025999) (xy -0.082512 4.902919) (xy -0.086492 4.818249) (xy -0.093339 4.764462) (xy -0.103788 4.734027) (xy -0.118575 4.719416)
     (xy -0.127000 4.715947) (xy -0.291654 4.648246) (xy -0.428441 4.553123) (xy -0.502987 4.481075) (xy -0.621480 4.341466) (xy -0.717979 4.192583) (xy -0.802260 4.017805) (xy -0.855173 3.882301)
     (xy -0.892369 3.776499) (xy -0.910981 3.710096) (xy -0.912639 3.672986) (xy -0.898974 3.655062) (xy -0.892335 3.651994) (xy -0.850302 3.639967) (xy -0.821604 3.649765) (xy -0.797480 3.690781)
     (xy -0.769167 3.772405) (xy -0.763635 3.789948) (xy -0.679581 4.008841) (xy -0.574192 4.204462) (xy -0.453243 4.368514) (xy -0.322507 4.492706) (xy -0.236214 4.547517) (xy -0.098222 4.590497)
     (xy 0.054924 4.593235) (xy 0.203329 4.555874) (xy 0.229581 4.544141) (xy 0.367384 4.452638) (xy 0.498438 4.320080) (xy 0.613521 4.158830) (xy 0.703416 3.981251) (xy 0.747513 3.849658)
     (xy 0.775230 3.744823) (xy 0.794635 3.681470) (xy 0.810356 3.649197) (xy 0.827019 3.637599) (xy 0.842435 3.636211) (xy 0.883136 3.649173) )(layer F.SilkS) (width  0.010000)
  )
  (fp_poly (pts (xy 1.578143 3.593452) (xy 1.611047 3.616158) (xy 1.629799 3.648336) (xy 1.663162 3.724176) (xy 1.708753 3.837025) (xy 1.764189 3.980231) (xy 1.827088 4.147143) (xy 1.895068 4.331106)
     (xy 1.965746 4.525470) (xy 2.036740 4.723582) (xy 2.105667 4.918790) (xy 2.170145 5.104441) (xy 2.227791 5.273883) (xy 2.276222 5.420464) (xy 2.313057 5.537531) (xy 2.335913 5.618432)
     (xy 2.342407 5.656515) (xy 2.342145 5.657522) (xy 2.327919 5.683969) (xy 2.310918 5.691101) (xy 2.289480 5.675298) (xy 2.261944 5.632942) (xy 2.226648 5.560414) (xy 2.181933 5.454095)
     (xy 2.126136 5.310366) (xy 2.057597 5.125608) (xy 1.974654 4.896203) (xy 1.911452 4.719247) (xy 1.834104 4.503003) (xy 1.761998 4.303384) (xy 1.697148 4.125818) (xy 1.641568 3.975734)
     (xy 1.597272 3.858561) (xy 1.566274 3.779725) (xy 1.550588 3.744657) (xy 1.549367 3.743352) (xy 1.537469 3.767627) (xy 1.509847 3.836920) (xy 1.468509 3.945803) (xy 1.415465 4.088848)
     (xy 1.352723 4.260624) (xy 1.282293 4.455704) (xy 1.206185 4.668659) (xy 1.188419 4.718662) (xy 1.110974 4.934999) (xy 1.038205 5.134678) (xy 0.972191 5.312261) (xy 0.915012 5.462313)
     (xy 0.868746 5.579396) (xy 0.835471 5.658073) (xy 0.817266 5.692907) (xy 0.815474 5.694147) (xy 0.769568 5.680970) (xy 0.757834 5.674464) (xy 0.759124 5.645572) (xy 0.777110 5.573176)
     (xy 0.809493 5.463756) (xy 0.853970 5.323795) (xy 0.908240 5.159773) (xy 0.970003 4.978171) (xy 1.036958 4.785471) (xy 1.106803 4.588153) (xy 1.177238 4.392698) (xy 1.245961 4.205588)
     (xy 1.310672 4.033304) (xy 1.369070 3.882326) (xy 1.418853 3.759137) (xy 1.457721 3.670216) (xy 1.483373 3.622046) (xy 1.488597 3.616158) (xy 1.538472 3.586771) (xy 1.578143 3.593452) )(layer F.SilkS) (width  0.010000)
  )
  (fp_poly (pts (xy -2.686064 3.637476) (xy -2.674982 3.644618) (xy -2.666275 3.662662) (xy -2.659712 3.696629) (xy -2.655062 3.751542) (xy -2.652095 3.832424) (xy -2.650578 3.944298) (xy -2.650281 4.092186)
     (xy -2.650972 4.281110) (xy -2.652421 4.516094) (xy -2.653310 4.645527) (xy -2.660316 5.654842) (xy -2.727158 5.654842) (xy -2.744000 5.654699) (xy -2.759883 5.651832) (xy -2.777415 5.642586)
     (xy -2.799211 5.623303) (xy -2.827881 5.590328) (xy -2.866036 5.540005) (xy -2.916289 5.468677) (xy -2.981251 5.372689) (xy -3.063534 5.248383) (xy -3.165749 5.092104) (xy -3.290509 4.900196)
     (xy -3.440423 4.669002) (xy -3.529282 4.531895) (xy -3.997158 3.810000) (xy -4.004188 4.739105) (xy -4.006147 4.986311) (xy -4.008117 5.185277) (xy -4.010436 5.341234) (xy -4.013444 5.459415)
     (xy -4.017479 5.545052) (xy -4.022880 5.603378) (xy -4.029986 5.639625) (xy -4.039135 5.659024) (xy -4.050667 5.666808) (xy -4.064346 5.668211) (xy -4.078107 5.666800) (xy -4.089261 5.659179)
     (xy -4.098081 5.640269) (xy -4.104841 5.604989) (xy -4.109814 5.548258) (xy -4.113275 5.464995) (xy -4.115498 5.350120) (xy -4.116755 5.198553) (xy -4.117321 5.005213) (xy -4.117469 4.765019)
     (xy -4.117473 4.682221) (xy -4.117254 4.423389) (xy -4.116455 4.212902) (xy -4.114864 4.045633) (xy -4.112267 3.916458) (xy -4.108452 3.820247) (xy -4.103207 3.751876) (xy -4.096319 3.706216)
     (xy -4.087576 3.678142) (xy -4.076764 3.662526) (xy -4.075127 3.661088) (xy -4.022563 3.640486) (xy -3.988232 3.653346) (xy -3.964312 3.681161) (xy -3.914801 3.749000) (xy -3.843054 3.851924)
     (xy -3.752423 3.984996) (xy -3.646263 4.143275) (xy -3.527926 4.321823) (xy -3.400768 4.515702) (xy -3.355473 4.585228) (xy -2.767263 5.489707) (xy -2.760232 4.562959) (xy -2.758274 4.316112)
     (xy -2.756309 4.117498) (xy -2.753994 3.961877) (xy -2.750989 3.844010) (xy -2.746951 3.758656) (xy -2.741539 3.700577) (xy -2.734409 3.664533) (xy -2.725221 3.645284) (xy -2.713633 3.637590)
     (xy -2.699753 3.636211) (xy -2.686064 3.637476) )(layer F.SilkS) (width  0.010000)
  )
  (fp_poly (pts (xy -3.998550 -0.716238) (xy -3.975916 -0.705920) (xy -3.944719 -0.685236) (xy -3.902481 -0.651844) (xy -3.846725 -0.603401) (xy -3.774974 -0.537566) (xy -3.684751 -0.451997) (xy -3.573578 -0.344351)
     (xy -3.438978 -0.212287) (xy -3.278474 -0.053462) (xy -3.089590 0.134465) (xy -2.869847 0.353837) (xy -2.616768 0.606995) (xy -2.399427 0.824618) (xy -2.118116 1.106508) (xy -1.872393 1.353126)
     (xy -1.659943 1.566918) (xy -1.478449 1.750328) (xy -1.325595 1.905803) (xy -1.199064 2.035789) (xy -1.096540 2.142731) (xy -1.015707 2.229074) (xy -0.954249 2.297265) (xy -0.909848 2.349749)
     (xy -0.880189 2.388971) (xy -0.862955 2.417378) (xy -0.855830 2.437415) (xy -0.856499 2.451528) (xy -0.857057 2.453105) (xy -0.880592 2.513263) (xy -1.984349 2.510873) (xy -2.292236 2.509648)
     (xy -2.549973 2.507357) (xy -2.760876 2.503902) (xy -2.928260 2.499185) (xy -3.055441 2.493110) (xy -3.145734 2.485579) (xy -3.202454 2.476494) (xy -3.208421 2.474950) (xy -3.442611 2.382946)
     (xy -3.648852 2.247698) (xy -3.822169 2.074245) (xy -3.957589 1.867631) (xy -4.050137 1.632896) (xy -4.054338 1.617579) (xy -4.064012 1.567290) (xy -4.071952 1.492639) (xy -4.078286 1.389261)
     (xy -4.083145 1.252790) (xy -4.086656 1.078861) (xy -4.088950 0.863107) (xy -4.090156 0.601164) (xy -4.090419 0.398660) (xy -4.090737 -0.686574) (xy -4.028035 -0.715143) (xy -4.015097 -0.718532)
     (xy -3.998550 -0.716238) )(layer F.SilkS) (width  0.010000)
  )
  (fp_poly (pts (xy -2.405023 -5.707211) (xy 0.869594 -2.432270) (xy 4.144211 0.842670) (xy 4.143673 1.083072) (xy 4.129999 1.369642) (xy 4.088937 1.615122) (xy 4.018354 1.825558) (xy 3.916120 2.006994)
     (xy 3.780100 2.165475) (xy 3.752750 2.191221) (xy 3.609601 2.308645) (xy 3.465637 2.395683) (xy 3.309815 2.455948) (xy 3.131092 2.493052) (xy 2.918424 2.510609) (xy 2.768453 2.513263)
     (xy 2.446666 2.513263) (xy -4.090737 -4.024140) (xy -4.090737 -4.345926) (xy -4.083037 -4.581162) (xy -4.058532 -4.775462) (xy -4.015107 -4.939304) (xy -3.950653 -5.083167) (xy -3.937479 -5.106346)
     (xy -3.788595 -5.310486) (xy -3.605392 -5.473924) (xy -3.388641 -5.596305) (xy -3.139111 -5.677277) (xy -2.857574 -5.716487) (xy -2.604567 -5.717288) (xy -2.405023 -5.707211) )(layer F.SilkS) (width  0.010000)
  )
  (fp_poly (pts (xy 1.931164 -5.721154) (xy 2.165601 -5.720315) (xy 2.390557 -5.718163) (xy 2.598634 -5.714867) (xy 2.782432 -5.710598) (xy 2.934555 -5.705527) (xy 3.047603 -5.699822) (xy 3.111903 -5.693996)
     (xy 3.350334 -5.633872) (xy 3.566802 -5.528714) (xy 3.755837 -5.383977) (xy 3.911967 -5.205115) (xy 4.029721 -4.997583) (xy 4.103626 -4.766836) (xy 4.116655 -4.692316) (xy 4.122778 -4.622310)
     (xy 4.128430 -4.506264) (xy 4.133441 -4.351610) (xy 4.137643 -4.165781) (xy 4.140864 -3.956208) (xy 4.142935 -3.730324) (xy 4.143681 -3.510151) (xy 4.143716 -3.253124) (xy 4.143346 -3.044373)
     (xy 4.142311 -2.878700) (xy 4.140351 -2.750909) (xy 4.137206 -2.655802) (xy 4.132615 -2.588182) (xy 4.126319 -2.542850) (xy 4.118057 -2.514611) (xy 4.107570 -2.498266) (xy 4.094596 -2.488618)
     (xy 4.092495 -2.487467) (xy 4.041560 -2.465065) (xy 4.018883 -2.459789) (xy 3.997056 -2.478260) (xy 3.940309 -2.531813) (xy 3.851470 -2.617657) (xy 3.733370 -2.733000) (xy 3.588839 -2.875052)
     (xy 3.420705 -3.041023) (xy 3.231800 -3.228120) (xy 3.024952 -3.433553) (xy 2.802992 -3.654532) (xy 2.568748 -3.888265) (xy 2.434638 -4.022310) (xy 2.155313 -4.301727) (xy 1.911483 -4.545873)
     (xy 1.700798 -4.757251) (xy 1.520904 -4.938365) (xy 1.369451 -5.091722) (xy 1.244088 -5.219825) (xy 1.142464 -5.325178) (xy 1.062226 -5.410287) (xy 1.001023 -5.477656) (xy 0.956504 -5.529790)
     (xy 0.926318 -5.569193) (xy 0.908114 -5.598370) (xy 0.899539 -5.619825) (xy 0.898243 -5.636063) (xy 0.901874 -5.649589) (xy 0.903466 -5.653257) (xy 0.934643 -5.721684) (xy 1.931164 -5.721154) )(layer F.SilkS) (width  0.010000)
  )
)
